test/riscv-tests/isa/trace.vcd
$version Generated by VerilatedVcd $end
$date Wed Jan 11 23:13:02 2023 $end
$timescale 1ps $end

 $scope module TOP $end
  $var wire  1 j clk_i $end
  $var wire  1 v dmem_ack_i $end
  $var wire 32 p dmem_addr_o [31:0] $end
  $var wire 32 q dmem_data_i [31:0] $end
  $var wire 32 r dmem_data_o [31:0] $end
  $var wire  4 s dmem_sel_o [3:0] $end
  $var wire  1 u dmem_valid_o $end
  $var wire  1 t dmem_we_o $end
  $var wire  1 o imem_ack_i $end
  $var wire 32 l imem_addr_o [31:0] $end
  $var wire 32 m imem_data_i [31:0] $end
  $var wire  1 n imem_valid_o $end
  $var wire  1 k rst_i $end
  $scope module AtomBones $end
   $var wire  1 j clk_i $end
   $var wire  1 v dmem_ack_i $end
   $var wire 32 # dmem_addr_o [31:0] $end
   $var wire 32 q dmem_data_i [31:0] $end
   $var wire 32 $ dmem_data_o [31:0] $end
   $var wire  4 % dmem_sel_o [3:0] $end
   $var wire  1 ' dmem_valid_o $end
   $var wire  1 & dmem_we_o $end
   $var wire  1 o imem_ack_i $end
   $var wire 32 w imem_addr_o [31:0] $end
   $var wire 32 m imem_data_i [31:0] $end
   $var wire  1 x imem_valid_o $end
   $var wire  1 k rst_i $end
   $scope module atom_core $end
    $var wire 32 ~ InstructionRegister [31:0] $end
    $var wire 32 w ProgramCounter [31:0] $end
    $var wire 32 } ProgramCounter_Old [31:0] $end
    $var wire 32 : alu_a_in [31:0] $end
    $var wire 32 ; alu_b_in [31:0] $end
    $var wire 32 < alu_out [31:0] $end
    $var wire  1 j clk_i $end
    $var wire 32 8 cmp_A [31:0] $end
    $var wire 32 8 cmp_A_signed [31:0] $end
    $var wire 32 > cmp_B [31:0] $end
    $var wire 32 > cmp_B_signed [31:0] $end
    $var wire  1 = comparison_result $end
    $var wire 12 ? csru_addr_i [11:0] $end
    $var wire 32 A csru_data_i [31:0] $end
    $var wire 32 @ csru_data_o [31:0] $end
    $var wire  1 2 d_a_op_sel $end
    $var wire  4 5 d_alu_op_sel [3:0] $end
    $var wire  1 3 d_b_op_sel $end
    $var wire  1 4 d_cmp_b_op_sel $end
    $var wire  3 / d_comparison_type [2:0] $end
    $var wire  3 $! d_csru_op_sel [2:0] $end
    $var wire  1 6 d_csru_we $end
    $var wire 32 - d_imm [31:0] $end
    $var wire  1 . d_jump_en $end
    $var wire  3 $! d_mem_access_width [2:0] $end
    $var wire  1 ' d_mem_load_store $end
    $var wire  1 & d_mem_we $end
    $var wire  5 !! d_rd_sel [4:0] $end
    $var wire  3 1 d_rf_din_sel [2:0] $end
    $var wire  1 0 d_rf_we $end
    $var wire  5 "! d_rs1_sel [4:0] $end
    $var wire  5 #! d_rs2_sel [4:0] $end
    $var wire  1 v dmem_ack_i $end
    $var wire 32 # dmem_addr_o [31:0] $end
    $var wire 32 < dmem_address [31:0] $end
    $var wire 32 q dmem_data_i [31:0] $end
    $var wire 32 $ dmem_data_o [31:0] $end
    $var wire 32 9 dmem_data_out [31:0] $end
    $var wire  1 z dmem_handshake $end
    $var wire  4 % dmem_sel_o [3:0] $end
    $var wire  1 ' dmem_valid_o $end
    $var wire  1 & dmem_we_o $end
    $var wire  1 , flush_pipeline $end
    $var wire  1 e ignore_imem_handshake $end
    $var wire  1 o imem_ack_i $end
    $var wire 32 w imem_addr_o [31:0] $end
    $var wire 32 m imem_data_i [31:0] $end
    $var wire  1 ) imem_handshake $end
    $var wire  1 x imem_valid_o $end
    $var wire  1 ( jump_decision $end
    $var wire 32 f link_address [31:0] $end
    $var wire 32 B memload [31:0] $end
    $var wire 32 | pc_plus_four [31:0] $end
    $var wire  1 y raw_imem_handshake $end
    $var wire 32 7 rf_rd_data [31:0] $end
    $var wire 32 8 rf_rs1 [31:0] $end
    $var wire 32 9 rf_rs2 [31:0] $end
    $var wire  1 k rst_i $end
    $var wire  1 + stall_stage1 $end
    $var wire  1 * stall_stage2 $end
    $var wire  1 * waiting_for_dbus_response $end
    $var wire  1 { waiting_for_ibus_response $end
    $scope module alu $end
     $var wire 32 : a_i [31:0] $end
     $var wire 32 S arith_result [31:0] $end
     $var wire 32 ; b_i [31:0] $end
     $var wire 32 X final_shift_output [31:0] $end
     $var wire 32 _ result_div [31:0] $end
     $var wire 32 ` result_divu [31:0] $end
     $var wire 64 Y result_mul [63:0] $end
     $var wire 64 [ result_mulsu [63:0] $end
     $var wire 64 ] result_mulu [63:0] $end
     $var wire 32 < result_o [31:0] $end
     $var wire 32 a result_rem [31:0] $end
     $var wire 32 b result_remu [31:0] $end
     $var wire  1 C sel_add $end
     $var wire  1 G sel_and $end
     $var wire  1 O sel_div $end
     $var wire  1 P sel_divu $end
     $var wire  4 5 sel_i [3:0] $end
     $var wire  1 K sel_mul $end
     $var wire  1 L sel_mulh $end
     $var wire  1 M sel_mulhsu $end
     $var wire  1 N sel_mulhu $end
     $var wire  1 F sel_or $end
     $var wire  1 Q sel_rem $end
     $var wire  1 R sel_remu $end
     $var wire  1 H sel_sll $end
     $var wire  1 J sel_sra $end
     $var wire  1 I sel_srl $end
     $var wire  1 D sel_sub $end
     $var wire  1 E sel_xor $end
     $var wire 33 T shift_input [32:0] $end
     $var wire 33 V shift_output [32:0] $end
    $upscope $end
    $scope module csr_unit $end
     $var wire 12 ? addr_i [11:0] $end
     $var wire  1 j clk_i $end
     $var wire 64 g csr_cycle [63:0] $end
     $var wire 32 A data_i [31:0] $end
     $var wire 32 @ data_o [31:0] $end
     $var wire  2 %! op_i [1:0] $end
     $var wire 32 @ read_value [31:0] $end
     $var wire  1 k rst_i $end
     $var wire  1 6 we_i $end
     $var wire 32 &! write_value [31:0] $end
    $upscope $end
    $scope module decode $end
     $var wire  1 2 a_op_sel_o $end
     $var wire  4 5 alu_op_sel_o [3:0] $end
     $var wire  1 3 b_op_sel_o $end
     $var wire  1 4 cmp_b_op_sel_o $end
     $var wire  3 / comparison_type_o [2:0] $end
     $var wire  3 $! csru_op_sel_o [2:0] $end
     $var wire  1 6 csru_we_o $end
     $var wire  1 ' d_mem_load_store $end
     $var wire  3 $! func3 [2:0] $end
     $var wire  7 (! func7 [6:0] $end
     $var wire 32 - getExtImm [31:0] $end
     $var wire  3 c imm_format [2:0] $end
     $var wire 32 - imm_o [31:0] $end
     $var wire 32 ~ instr_i [31:0] $end
     $var wire  1 . jump_en_o $end
     $var wire  3 $! mem_access_width_o [2:0] $end
     $var wire  1 & mem_we_o $end
     $var wire  7 '! opcode [6:0] $end
     $var wire  5 !! rd_sel_o [4:0] $end
     $var wire  3 1 rf_din_sel_o [2:0] $end
     $var wire  1 0 rf_we_o $end
     $var wire  5 "! rs1_sel_o [4:0] $end
     $var wire  5 #! rs2_sel_o [4:0] $end
    $upscope $end
    $scope module rf $end
     $var wire  1 j Clk_i $end
     $var wire  1 d Data_We_i $end
     $var wire 32 7 Data_i [31:0] $end
     $var wire 32 I! REG_ADDR_WIDTH [31:0] $end
     $var wire 32 H! REG_COUNT [31:0] $end
     $var wire 32 H! REG_WIDTH [31:0] $end
     $var wire  5 "! Ra_Sel_i [4:0] $end
     $var wire 32 8 Ra_o [31:0] $end
     $var wire  5 #! Rb_Sel_i [4:0] $end
     $var wire 32 9 Rb_o [31:0] $end
     $var wire  5 !! Rd_Sel_i [4:0] $end
     $var wire  1 k Rst_i $end
     $var wire 32 i i [31:0] $end
     $var wire 32 2! regs[10] [31:0] $end
     $var wire 32 3! regs[11] [31:0] $end
     $var wire 32 4! regs[12] [31:0] $end
     $var wire 32 5! regs[13] [31:0] $end
     $var wire 32 6! regs[14] [31:0] $end
     $var wire 32 7! regs[15] [31:0] $end
     $var wire 32 8! regs[16] [31:0] $end
     $var wire 32 9! regs[17] [31:0] $end
     $var wire 32 :! regs[18] [31:0] $end
     $var wire 32 ;! regs[19] [31:0] $end
     $var wire 32 )! regs[1] [31:0] $end
     $var wire 32 <! regs[20] [31:0] $end
     $var wire 32 =! regs[21] [31:0] $end
     $var wire 32 >! regs[22] [31:0] $end
     $var wire 32 ?! regs[23] [31:0] $end
     $var wire 32 @! regs[24] [31:0] $end
     $var wire 32 A! regs[25] [31:0] $end
     $var wire 32 B! regs[26] [31:0] $end
     $var wire 32 C! regs[27] [31:0] $end
     $var wire 32 D! regs[28] [31:0] $end
     $var wire 32 E! regs[29] [31:0] $end
     $var wire 32 *! regs[2] [31:0] $end
     $var wire 32 F! regs[30] [31:0] $end
     $var wire 32 G! regs[31] [31:0] $end
     $var wire 32 +! regs[3] [31:0] $end
     $var wire 32 ,! regs[4] [31:0] $end
     $var wire 32 -! regs[5] [31:0] $end
     $var wire 32 .! regs[6] [31:0] $end
     $var wire 32 /! regs[7] [31:0] $end
     $var wire 32 0! regs[8] [31:0] $end
     $var wire 32 1! regs[9] [31:0] $end
    $upscope $end
   $upscope $end
  $upscope $end
 $upscope $end
$enddefinitions $end


#8
b00000000000000000000000000000000 #
b00000000000000000000000000000000 $
b1111 %
0&
0'
0(
1)
0*
0+
0,
b00000000000000000000000000000000 -
0.
b000 /
10
b010 1
02
13
04
b0000 5
06
b00000000000000000000000000000000 7
b00000000000000000000000000000000 8
b00000000000000000000000000000000 9
b00000000000000000000000000000000 :
b00000000000000000000000000000000 ;
b00000000000000000000000000000000 <
1=
b00000000000000000000000000000000 >
b000000000000 ?
b00000000000000000000000000000000 @
b00000000000000000000000000000000 A
b00000000000000000000000000000000 B
1C
0D
0E
0F
0G
0H
0I
0J
0K
0L
0M
0N
0O
0P
0Q
0R
b00000000000000000000000000000000 S
b000000000000000000000000000000000 T
b000000000000000000000000000000000 V
b00000000000000000000000000000000 X
b0000000000000000000000000000000000000000000000000000000000000000 Y
b0000000000000000000000000000000000000000000000000000000000000000 [
b0000000000000000000000000000000000000000000000000000000000000000 ]
b11111111111111111111111111111111 _
b11111111111111111111111111111111 `
b00000000000000000000000000000000 a
b00000000000000000000000000000000 b
b000 c
1d
0e
b00000000000000000000000000000000 f
b0000000000000000000000000000000000000000000000000000000000000000 g
b00000000000000000000000000100000 i
0j
0k
b00000000000000000000000000000000 l
b00000100100000000000000001101111 m
1n
1o
b00000000000000000000000000000000 p
b00000000000000000000000000000000 q
b00000000000000000000000000000000 r
b1111 s
0t
0u
0v
b00000000000000000000000000000000 w
1x
1y
0z
0{
b00000000000000000000000000000100 |
b00000000000000000000000000000000 }
b00000000000000000000000000010011 ~
b00000 !!
b00000 "!
b00000 #!
b000 $!
b00 %!
b00000000000000000000000000000000 &!
b0010011 '!
b0000000 (!
b00000000000000000000000000000000 )!
b00000000000000000000000000000000 *!
b00000000000000000000000000000000 +!
b00000000000000000000000000000000 ,!
b00000000000000000000000000000000 -!
b00000000000000000000000000000000 .!
b00000000000000000000000000000000 /!
b00000000000000000000000000000000 0!
b00000000000000000000000000000000 1!
b00000000000000000000000000000000 2!
b00000000000000000000000000000000 3!
b00000000000000000000000000000000 4!
b00000000000000000000000000000000 5!
b00000000000000000000000000000000 6!
b00000000000000000000000000000000 7!
b00000000000000000000000000000000 8!
b00000000000000000000000000000000 9!
b00000000000000000000000000000000 :!
b00000000000000000000000000000000 ;!
b00000000000000000000000000000000 <!
b00000000000000000000000000000000 =!
b00000000000000000000000000000000 >!
b00000000000000000000000000000000 ?!
b00000000000000000000000000000000 @!
b00000000000000000000000000000000 A!
b00000000000000000000000000000000 B!
b00000000000000000000000000000000 C!
b00000000000000000000000000000000 D!
b00000000000000000000000000000000 E!
b00000000000000000000000000000000 F!
b00000000000000000000000000000000 G!
b00000000000000000000000000100000 H!
b00000000000000000000000000000101 I!
#10
b00000000000000000000000001001000 #
1(
1,
b00000000000000000000000001001000 -
1.
b001 1
12
b00000000000000000000000000000100 7
b00000000000000000000000001001000 ;
b00000000000000000000000001001000 <
b000001001000 ?
b00000000000000000000000001001000 S
b00000000000000000000000000000000 _
b00000000000000000000000000000000 `
b100 c
b00000000000000000000000000000100 f
b0000000000000000000000000000000000000000000000000000000000000001 g
1j
b00000000000000000000000000000100 l
b00000000000000000000000001001000 p
b00000000000000000000000000000100 w
b00000000000000000000000000001000 |
b00000100100000000000000001101111 ~
b01000 #!
b1101111 '!
b0000010 (!
#15
0j
#18
b00110100001000000010111101110011 m
#20
b00000000000000000000000000000000 #
0(
0)
1+
b00000000000000000000000000000000 -
0.
b010 1
02
b00000000000000000000000000000000 7
b00000000000000000000000000000000 ;
b00000000000000000000000000000000 <
b000000000000 ?
b00000000000000000000000000000000 S
b11111111111111111111111111111111 _
b11111111111111111111111111111111 `
b000 c
1e
b00000000000000000000000000001000 f
b0000000000000000000000000000000000000000000000000000000000000010 g
1j
b00000000000000000000000001001000 l
b00000000000000000000000000000000 p
b00000000000000000000000001001000 w
1{
b00000000000000000000000001001100 |
b00000000000000000000000000000100 }
b00000000000000000000000000010011 ~
b00000 #!
b0010011 '!
b0000000 (!
#25
0j
#28
b00000000000000000000000010010011 m
#30
1)
0+
0,
0e
b0000000000000000000000000000000000000000000000000000000000000011 g
1j
0{
#35
0j
#38
#40
b00000000000000000000000001001100 f
b0000000000000000000000000000000000000000000000000000000000000100 g
1j
b00000000000000000000000001001100 l
b00000000000000000000000001001100 w
b00000000000000000000000001010000 |
b00000000000000000000000001001000 }
b00000000000000000000000010010011 ~
b00001 !!
#45
0j
#48
b00000000000000000000000100010011 m
#50
b00000000000000000000000001010000 f
b0000000000000000000000000000000000000000000000000000000000000101 g
1j
b00000000000000000000000001010000 l
b00000000000000000000000001010000 w
b00000000000000000000000001010100 |
b00000000000000000000000001001100 }
b00000000000000000000000100010011 ~
b00010 !!
#55
0j
#58
b00000000000000000000000110010011 m
#60
b00000000000000000000000001010100 f
b0000000000000000000000000000000000000000000000000000000000000110 g
1j
b00000000000000000000000001010100 l
b00000000000000000000000001010100 w
b00000000000000000000000001011000 |
b00000000000000000000000001010000 }
b00000000000000000000000110010011 ~
b00011 !!
#65
0j
#68
b00000000000000000000001000010011 m
#70
b00000000000000000000000001011000 f
b0000000000000000000000000000000000000000000000000000000000000111 g
1j
b00000000000000000000000001011000 l
b00000000000000000000000001011000 w
b00000000000000000000000001011100 |
b00000000000000000000000001010100 }
b00000000000000000000001000010011 ~
b00100 !!
#75
0j
#78
b00000000000000000000001010010011 m
#80
b00000000000000000000000001011100 f
b0000000000000000000000000000000000000000000000000000000000001000 g
1j
b00000000000000000000000001011100 l
b00000000000000000000000001011100 w
b00000000000000000000000001100000 |
b00000000000000000000000001011000 }
b00000000000000000000001010010011 ~
b00101 !!
#85
0j
#88
b00000000000000000000001100010011 m
#90
b00000000000000000000000001100000 f
b0000000000000000000000000000000000000000000000000000000000001001 g
1j
b00000000000000000000000001100000 l
b00000000000000000000000001100000 w
b00000000000000000000000001100100 |
b00000000000000000000000001011100 }
b00000000000000000000001100010011 ~
b00110 !!
#95
0j
#98
b00000000000000000000001110010011 m
#100
b00000000000000000000000001100100 f
b0000000000000000000000000000000000000000000000000000000000001010 g
1j
b00000000000000000000000001100100 l
b00000000000000000000000001100100 w
b00000000000000000000000001101000 |
b00000000000000000000000001100000 }
b00000000000000000000001110010011 ~
b00111 !!
#105
0j
#108
b00000000000000000000010000010011 m
#110
b00000000000000000000000001101000 f
b0000000000000000000000000000000000000000000000000000000000001011 g
1j
b00000000000000000000000001101000 l
b00000000000000000000000001101000 w
b00000000000000000000000001101100 |
b00000000000000000000000001100100 }
b00000000000000000000010000010011 ~
b01000 !!
#115
0j
#118
b00000000000000000000010010010011 m
#120
b00000000000000000000000001101100 f
b0000000000000000000000000000000000000000000000000000000000001100 g
1j
b00000000000000000000000001101100 l
b00000000000000000000000001101100 w
b00000000000000000000000001110000 |
b00000000000000000000000001101000 }
b00000000000000000000010010010011 ~
b01001 !!
#125
0j
#128
b00000000000000000000010100010011 m
#130
b00000000000000000000000001110000 f
b0000000000000000000000000000000000000000000000000000000000001101 g
1j
b00000000000000000000000001110000 l
b00000000000000000000000001110000 w
b00000000000000000000000001110100 |
b00000000000000000000000001101100 }
b00000000000000000000010100010011 ~
b01010 !!
#135
0j
#138
b00000000000000000000010110010011 m
#140
b00000000000000000000000001110100 f
b0000000000000000000000000000000000000000000000000000000000001110 g
1j
b00000000000000000000000001110100 l
b00000000000000000000000001110100 w
b00000000000000000000000001111000 |
b00000000000000000000000001110000 }
b00000000000000000000010110010011 ~
b01011 !!
#145
0j
#148
b00000000000000000000011000010011 m
#150
b00000000000000000000000001111000 f
b0000000000000000000000000000000000000000000000000000000000001111 g
1j
b00000000000000000000000001111000 l
b00000000000000000000000001111000 w
b00000000000000000000000001111100 |
b00000000000000000000000001110100 }
b00000000000000000000011000010011 ~
b01100 !!
#155
0j
#158
b00000000000000000000011010010011 m
#160
b00000000000000000000000001111100 f
b0000000000000000000000000000000000000000000000000000000000010000 g
1j
b00000000000000000000000001111100 l
b00000000000000000000000001111100 w
b00000000000000000000000010000000 |
b00000000000000000000000001111000 }
b00000000000000000000011010010011 ~
b01101 !!
#165
0j
#168
b00000000000000000000011100010011 m
#170
b00000000000000000000000010000000 f
b0000000000000000000000000000000000000000000000000000000000010001 g
1j
b00000000000000000000000010000000 l
b00000000000000000000000010000000 w
b00000000000000000000000010000100 |
b00000000000000000000000001111100 }
b00000000000000000000011100010011 ~
b01110 !!
#175
0j
#178
b00000000000000000000011110010011 m
#180
b00000000000000000000000010000100 f
b0000000000000000000000000000000000000000000000000000000000010010 g
1j
b00000000000000000000000010000100 l
b00000000000000000000000010000100 w
b00000000000000000000000010001000 |
b00000000000000000000000010000000 }
b00000000000000000000011110010011 ~
b01111 !!
#185
0j
#188
b00000000000000000000100000010011 m
#190
b00000000000000000000000010001000 f
b0000000000000000000000000000000000000000000000000000000000010011 g
1j
b00000000000000000000000010001000 l
b00000000000000000000000010001000 w
b00000000000000000000000010001100 |
b00000000000000000000000010000100 }
b00000000000000000000100000010011 ~
b10000 !!
#195
0j
#198
b00000000000000000000100010010011 m
#200
b00000000000000000000000010001100 f
b0000000000000000000000000000000000000000000000000000000000010100 g
1j
b00000000000000000000000010001100 l
b00000000000000000000000010001100 w
b00000000000000000000000010010000 |
b00000000000000000000000010001000 }
b00000000000000000000100010010011 ~
b10001 !!
#205
0j
#208
b00000000000000000000100100010011 m
#210
b00000000000000000000000010010000 f
b0000000000000000000000000000000000000000000000000000000000010101 g
1j
b00000000000000000000000010010000 l
b00000000000000000000000010010000 w
b00000000000000000000000010010100 |
b00000000000000000000000010001100 }
b00000000000000000000100100010011 ~
b10010 !!
#215
0j
#218
b00000000000000000000100110010011 m
#220
b00000000000000000000000010010100 f
b0000000000000000000000000000000000000000000000000000000000010110 g
1j
b00000000000000000000000010010100 l
b00000000000000000000000010010100 w
b00000000000000000000000010011000 |
b00000000000000000000000010010000 }
b00000000000000000000100110010011 ~
b10011 !!
#225
0j
#228
b00000000000000000000101000010011 m
#230
b00000000000000000000000010011000 f
b0000000000000000000000000000000000000000000000000000000000010111 g
1j
b00000000000000000000000010011000 l
b00000000000000000000000010011000 w
b00000000000000000000000010011100 |
b00000000000000000000000010010100 }
b00000000000000000000101000010011 ~
b10100 !!
#235
0j
#238
b00000000000000000000101010010011 m
#240
b00000000000000000000000010011100 f
b0000000000000000000000000000000000000000000000000000000000011000 g
1j
b00000000000000000000000010011100 l
b00000000000000000000000010011100 w
b00000000000000000000000010100000 |
b00000000000000000000000010011000 }
b00000000000000000000101010010011 ~
b10101 !!
#245
0j
#248
b00000000000000000000101100010011 m
#250
b00000000000000000000000010100000 f
b0000000000000000000000000000000000000000000000000000000000011001 g
1j
b00000000000000000000000010100000 l
b00000000000000000000000010100000 w
b00000000000000000000000010100100 |
b00000000000000000000000010011100 }
b00000000000000000000101100010011 ~
b10110 !!
#255
0j
#258
b00000000000000000000101110010011 m
#260
b00000000000000000000000010100100 f
b0000000000000000000000000000000000000000000000000000000000011010 g
1j
b00000000000000000000000010100100 l
b00000000000000000000000010100100 w
b00000000000000000000000010101000 |
b00000000000000000000000010100000 }
b00000000000000000000101110010011 ~
b10111 !!
#265
0j
#268
b00000000000000000000110000010011 m
#270
b00000000000000000000000010101000 f
b0000000000000000000000000000000000000000000000000000000000011011 g
1j
b00000000000000000000000010101000 l
b00000000000000000000000010101000 w
b00000000000000000000000010101100 |
b00000000000000000000000010100100 }
b00000000000000000000110000010011 ~
b11000 !!
#275
0j
#278
b00000000000000000000110010010011 m
#280
b00000000000000000000000010101100 f
b0000000000000000000000000000000000000000000000000000000000011100 g
1j
b00000000000000000000000010101100 l
b00000000000000000000000010101100 w
b00000000000000000000000010110000 |
b00000000000000000000000010101000 }
b00000000000000000000110010010011 ~
b11001 !!
#285
0j
#288
b00000000000000000000110100010011 m
#290
b00000000000000000000000010110000 f
b0000000000000000000000000000000000000000000000000000000000011101 g
1j
b00000000000000000000000010110000 l
b00000000000000000000000010110000 w
b00000000000000000000000010110100 |
b00000000000000000000000010101100 }
b00000000000000000000110100010011 ~
b11010 !!
#295
0j
#298
b00000000000000000000110110010011 m
#300
b00000000000000000000000010110100 f
b0000000000000000000000000000000000000000000000000000000000011110 g
1j
b00000000000000000000000010110100 l
b00000000000000000000000010110100 w
b00000000000000000000000010111000 |
b00000000000000000000000010110000 }
b00000000000000000000110110010011 ~
b11011 !!
#305
0j
#308
b00000000000000000000111000010011 m
#310
b00000000000000000000000010111000 f
b0000000000000000000000000000000000000000000000000000000000011111 g
1j
b00000000000000000000000010111000 l
b00000000000000000000000010111000 w
b00000000000000000000000010111100 |
b00000000000000000000000010110100 }
b00000000000000000000111000010011 ~
b11100 !!
#315
0j
#318
b00000000000000000000111010010011 m
#320
b00000000000000000000000010111100 f
b0000000000000000000000000000000000000000000000000000000000100000 g
1j
b00000000000000000000000010111100 l
b00000000000000000000000010111100 w
b00000000000000000000000011000000 |
b00000000000000000000000010111000 }
b00000000000000000000111010010011 ~
b11101 !!
#325
0j
#328
b00000000000000000000111100010011 m
#330
b00000000000000000000000011000000 f
b0000000000000000000000000000000000000000000000000000000000100001 g
1j
b00000000000000000000000011000000 l
b00000000000000000000000011000000 w
b00000000000000000000000011000100 |
b00000000000000000000000010111100 }
b00000000000000000000111100010011 ~
b11110 !!
#335
0j
#338
b00000000000000000000111110010011 m
#340
b00000000000000000000000011000100 f
b0000000000000000000000000000000000000000000000000000000000100010 g
1j
b00000000000000000000000011000100 l
b00000000000000000000000011000100 w
b00000000000000000000000011001000 |
b00000000000000000000000011000000 }
b00000000000000000000111110010011 ~
b11111 !!
#345
0j
#348
b11110001010000000010010101110011 m
#350
b11111111111111111111111100010100 -
b101 1
03
16
b111100010100 ?
b00000000000000000000000011001000 f
b0000000000000000000000000000000000000000000000000000000000100011 g
1j
b00000000000000000000000011001000 l
b00000000000000000000000011001000 w
b00000000000000000000000011001100 |
b00000000000000000000000011000100 }
b11110001010000000010010101110011 ~
b01010 !!
b10100 #!
b010 $!
b10 %!
b11111111111111111111111111111111 &!
b1110011 '!
b1111000 (!
#355
0j
#358
b00000000000001010001000001100011 m
#360
b00000000000000000000000011001000 #
b00000000000000000000000000000000 -
1.
b010 /
00
b000 1
12
13
06
b00000000000000000000000011001000 :
b00000000000000000000000011001000 <
0=
b000000000000 ?
b00000000000000000000000011001000 S
b000010011000000000000000000000000 T
b000010011000000000000000000000000 V
b00010011000000000000000000000000 X
b00000000000000000000000011001000 a
b00000000000000000000000011001000 b
b010 c
0d
b00000000000000000000000011001100 f
b0000000000000000000000000000000000000000000000000000000000100100 g
1j
b00000000000000000000000011001100 l
b00000000000000000000000011001000 p
b00000000000000000000000011001100 w
b00000000000000000000000011010000 |
b00000000000000000000000011001000 }
b00000000000001010001000001100011 ~
b00000 !!
b01010 "!
b00000 #!
b001 $!
b01 %!
b00000000000000000000000000000000 &!
b1100011 '!
b0000000 (!
#365
0j
#368
b00000000000000000000001010010111 m
#370
b00000000000000000000000011001100 #
0.
b000 /
10
b010 1
b00000000000000000000000011001100 7
b00000000000000000000000011001100 :
b00000000000000000000000011001100 <
1=
b00000000000000000000000011001100 S
b000110011000000000000000000000000 T
b000110011000000000000000000000000 V
b00110011000000000000000000000000 X
b00000000000000000000000011001100 a
b00000000000000000000000011001100 b
b011 c
1d
b00000000000000000000000011010000 f
b0000000000000000000000000000000000000000000000000000000000100101 g
1j
b00000000000000000000000011010000 l
b00000000000000000000000011001100 p
b00000000000000000000000011010000 w
b00000000000000000000000011010100 |
b00000000000000000000000011001100 }
b00000000000000000000001010010111 ~
b00101 !!
b00000 "!
b000 $!
b00 %!
b0010111 '!
#375
0j
#378
b00000001000000101000001010010011 m
#380
b00000000000000000000000011011100 #
b00000000000000000000000000010000 -
02
b00000000000000000000000011011100 7
b00000000000000000000000011001100 8
b00000000000000000000000000010000 ;
b00000000000000000000000011011100 <
b000000010000 ?
b00000000000000000000000011001100 A
b00000000000000000000000011011100 S
b000000000000000000011001100000000 V
b00000000000000000011001100000000 X
b0000000000000000000000000000000000000000000000000000110011000000 Y
b0000000000000000000000000000000000000000000000000000110011000000 [
b0000000000000000000000000000000000000000000000000000110011000000 ]
b00000000000000000000000000001100 _
b00000000000000000000000000001100 `
b00000000000000000000000000001100 a
b00000000000000000000000000001100 b
b000 c
b00000000000000000000000011010100 f
b0000000000000000000000000000000000000000000000000000000000100110 g
1j
b00000000000000000000000011010100 l
b00000000000000000000000011011100 p
b00000000000000000000000011010100 w
b00000000000000000000000011011000 |
b00000000000000000000000011010000 }
b00000001000000101000001010010011 ~
b00101 "!
b10000 #!
b00000000000000000000000011001100 &!
b0010011 '!
b00000000000000000000000011001100 -!
#385
0j
#388
b00110000010100101001000001110011 m
#390
b00000000000000000000000110111000 #
b00000000000000000000001100000101 -
00
b101 1
03
16
b00000000000000000000000000000000 7
b00000000000000000000000011011100 8
b00000000000000000000000011011100 9
b00000000000000000000000011011100 :
b00000000000000000000000011011100 ;
b00000000000000000000000110111000 <
b00000000000000000000000011011100 >
b001100000101 ?
b00000000000000000000000011011100 A
b00000000000000000000000110111000 S
b000111011000000000000000000000000 T
b000000000000000000000000000000011 V
b00000000000000000000000000000011 X
b0000000000000000000000000000000000000000000000001011110100010000 Y
b0000000000000000000000000000000000000000000000001011110100010000 [
b0000000000000000000000000000000000000000000000001011110100010000 ]
b00000000000000000000000000000001 _
b00000000000000000000000000000001 `
b00000000000000000000000000000000 a
b00000000000000000000000000000000 b
0d
b00000000000000000000000011011000 f
b0000000000000000000000000000000000000000000000000000000000100111 g
1j
b00000000000000000000000011011000 l
b00000000000000000000000110111000 p
b00000000000000000000000011011000 w
b00000000000000000000000011011100 |
b00000000000000000000000011010100 }
b00110000010100101001000001110011 ~
b00000 !!
b00101 #!
b001 $!
b01 %!
b00000000000000000000000000000000 &!
b1110011 '!
b0011000 (!
b00000000000000000000000011011100 -!
#395
0j
#398
b00011000000000000101000001110011 m
#400
b00000000000000000000000000000000 #
b00000000000000000000000110000000 -
b00000000000000000000000000000000 8
b00000000000000000000000000000000 9
b00000000000000000000000000000000 :
b00000000000000000000000000000000 ;
b00000000000000000000000000000000 <
b00000000000000000000000000000000 >
b000110000000 ?
b00000000000000000000000000000000 A
b00000000000000000000000000000000 S
b000000000000000000000000000000000 T
b000000000000000000000000000000000 V
b00000000000000000000000000000000 X
b0000000000000000000000000000000000000000000000000000000000000000 Y
b0000000000000000000000000000000000000000000000000000000000000000 [
b0000000000000000000000000000000000000000000000000000000000000000 ]
b11111111111111111111111111111111 _
b11111111111111111111111111111111 `
b00000000000000000000000011011100 f
b0000000000000000000000000000000000000000000000000000000000101000 g
1j
b00000000000000000000000011011100 l
b00000000000000000000000000000000 p
b00000000000000000000000011011100 w
b00000000000000000000000011100000 |
b00000000000000000000000011011000 }
b00011000000000000101000001110011 ~
b00000 "!
b00000 #!
b101 $!
b0001100 (!
#405
0j
#408
b00000000000000000000001010010111 m
#410
b00000000000000000000000011011100 #
b00000000000000000000000000000000 -
10
b010 1
12
13
06
b00000000000000000000000011011100 7
b00000000000000000000000011011100 :
b00000000000000000000000011011100 <
b000000000000 ?
b00000000000000000000000011011100 S
b000111011000000000000000000000000 T
b000111011000000000000000000000000 V
b00111011000000000000000000000000 X
b00000000000000000000000011011100 a
b00000000000000000000000011011100 b
b011 c
1d
b00000000000000000000000011100000 f
b0000000000000000000000000000000000000000000000000000000000101001 g
1j
b00000000000000000000000011100000 l
b00000000000000000000000011011100 p
b00000000000000000000000011100000 w
b00000000000000000000000011100100 |
b00000000000000000000000011011100 }
b00000000000000000000001010010111 ~
b00101 !!
b000 $!
b00 %!
b0010111 '!
b0000000 (!
#415
0j
#418
b00000010000000101000001010010011 m
#420
b00000000000000000000000011111100 #
b00000000000000000000000000100000 -
02
b00000000000000000000000011111100 7
b00000000000000000000000011011100 8
b00000000000000000000000000100000 ;
b00000000000000000000000011111100 <
b000000100000 ?
b00000000000000000000000011011100 A
b00000000000000000000000011111100 S
b0000000000000000000000000000000000000000000000000001101110000000 Y
b0000000000000000000000000000000000000000000000000001101110000000 [
b0000000000000000000000000000000000000000000000000001101110000000 ]
b00000000000000000000000000000110 _
b00000000000000000000000000000110 `
b00000000000000000000000000011100 a
b00000000000000000000000000011100 b
b000 c
b00000000000000000000000011100100 f
b0000000000000000000000000000000000000000000000000000000000101010 g
1j
b00000000000000000000000011100100 l
b00000000000000000000000011111100 p
b00000000000000000000000011100100 w
b00000000000000000000000011101000 |
b00000000000000000000000011100000 }
b00000010000000101000001010010011 ~
b00101 "!
b00000000000000000000000011011100 &!
b0010011 '!
b0000001 (!
#425
0j
#428
b00110000010100101001000001110011 m
