sw/examples/hello-asm/trace.vcd
$version Generated by VerilatedVcd $end
$date Fri Jan  6 15:09:38 2023 $end
$timescale 1ps $end

 $scope module TOP $end
  $var wire  1 h clk_i $end
  $var wire  1 t dmem_ack_i $end
  $var wire 32 n dmem_addr_o [31:0] $end
  $var wire 32 o dmem_data_i [31:0] $end
  $var wire 32 p dmem_data_o [31:0] $end
  $var wire  4 q dmem_sel_o [3:0] $end
  $var wire  1 s dmem_valid_o $end
  $var wire  1 r dmem_we_o $end
  $var wire  1 m imem_ack_i $end
  $var wire 32 j imem_addr_o [31:0] $end
  $var wire 32 k imem_data_i [31:0] $end
  $var wire  1 l imem_valid_o $end
  $var wire  1 i rst_i $end
  $scope module AtomBones $end
   $var wire  1 h clk_i $end
   $var wire  1 t dmem_ack_i $end
   $var wire 32 # dmem_addr_o [31:0] $end
   $var wire 32 o dmem_data_i [31:0] $end
   $var wire 32 $ dmem_data_o [31:0] $end
   $var wire  4 % dmem_sel_o [3:0] $end
   $var wire  1 ' dmem_valid_o $end
   $var wire  1 & dmem_we_o $end
   $var wire  1 m imem_ack_i $end
   $var wire 32 u imem_addr_o [31:0] $end
   $var wire 32 k imem_data_i [31:0] $end
   $var wire  1 v imem_valid_o $end
   $var wire  1 i rst_i $end
   $scope module atom_core $end
    $var wire 32 | InstructionRegister [31:0] $end
    $var wire 32 u ProgramCounter [31:0] $end
    $var wire 32 { ProgramCounter_Old [31:0] $end
    $var wire 32 : alu_a_in [31:0] $end
    $var wire 32 ; alu_b_in [31:0] $end
    $var wire 32 < alu_out [31:0] $end
    $var wire  1 h clk_i $end
    $var wire 32 8 cmp_A [31:0] $end
    $var wire 32 8 cmp_A_signed [31:0] $end
    $var wire 32 > cmp_B [31:0] $end
    $var wire 32 > cmp_B_signed [31:0] $end
    $var wire  1 = comparison_result $end
    $var wire 12 ? csru_addr_i [11:0] $end
    $var wire 32 A csru_data_i [31:0] $end
    $var wire 32 @ csru_data_o [31:0] $end
    $var wire  1 2 d_a_op_sel $end
    $var wire  4 5 d_alu_op_sel [3:0] $end
    $var wire  1 3 d_b_op_sel $end
    $var wire  1 4 d_cmp_b_op_sel $end
    $var wire  3 / d_comparison_type [2:0] $end
    $var wire  3 "! d_csru_op_sel [2:0] $end
    $var wire  1 6 d_csru_we $end
    $var wire 32 - d_imm [31:0] $end
    $var wire  1 . d_jump_en $end
    $var wire  3 "! d_mem_access_width [2:0] $end
    $var wire  1 ' d_mem_load_store $end
    $var wire  1 & d_mem_we $end
    $var wire  5 } d_rd_sel [4:0] $end
    $var wire  3 1 d_rf_din_sel [2:0] $end
    $var wire  1 0 d_rf_we $end
    $var wire  5 ~ d_rs1_sel [4:0] $end
    $var wire  5 !! d_rs2_sel [4:0] $end
    $var wire  1 t dmem_ack_i $end
    $var wire 32 # dmem_addr_o [31:0] $end
    $var wire 32 < dmem_address [31:0] $end
    $var wire 32 o dmem_data_i [31:0] $end
    $var wire 32 $ dmem_data_o [31:0] $end
    $var wire 32 9 dmem_data_out [31:0] $end
    $var wire  1 x dmem_handshake $end
    $var wire  4 % dmem_sel_o [3:0] $end
    $var wire  1 ' dmem_valid_o $end
    $var wire  1 & dmem_we_o $end
    $var wire  1 , flush_pipeline $end
    $var wire  1 c ignore_imem_handshake $end
    $var wire  1 m imem_ack_i $end
    $var wire 32 u imem_addr_o [31:0] $end
    $var wire 32 k imem_data_i [31:0] $end
    $var wire  1 ) imem_handshake $end
    $var wire  1 v imem_valid_o $end
    $var wire  1 ( jump_decision $end
    $var wire 32 d link_address [31:0] $end
    $var wire 32 B memload [31:0] $end
    $var wire 32 z pc_plus_four [31:0] $end
    $var wire  1 w raw_imem_handshake $end
    $var wire 32 7 rf_rd_data [31:0] $end
    $var wire 32 8 rf_rs1 [31:0] $end
    $var wire 32 9 rf_rs2 [31:0] $end
    $var wire  1 i rst_i $end
    $var wire  1 + stall_stage1 $end
    $var wire  1 * stall_stage2 $end
    $var wire  1 * waiting_for_dbus_response $end
    $var wire  1 y waiting_for_ibus_response $end
    $scope module alu $end
     $var wire 32 : a_i [31:0] $end
     $var wire 32 S arith_result [31:0] $end
     $var wire 32 ; b_i [31:0] $end
     $var wire 32 X final_shift_output [31:0] $end
     $var wire 32 ] result_div [31:0] $end
     $var wire 32 ^ result_divu [31:0] $end
     $var wire 64 Y result_mul [63:0] $end
     $var wire 64 [ result_mulsu [63:0] $end
     $var wire 64 [ result_mulu [63:0] $end
     $var wire 32 < result_o [31:0] $end
     $var wire 32 _ result_rem [31:0] $end
     $var wire 32 ` result_remu [31:0] $end
     $var wire  1 C sel_add $end
     $var wire  1 G sel_and $end
     $var wire  1 O sel_div $end
     $var wire  1 P sel_divu $end
     $var wire  4 5 sel_i [3:0] $end
     $var wire  1 K sel_mul $end
     $var wire  1 L sel_mulh $end
     $var wire  1 M sel_mulhsu $end
     $var wire  1 N sel_mulhu $end
     $var wire  1 F sel_or $end
     $var wire  1 Q sel_rem $end
     $var wire  1 R sel_remu $end
     $var wire  1 H sel_sll $end
     $var wire  1 J sel_sra $end
     $var wire  1 I sel_srl $end
     $var wire  1 D sel_sub $end
     $var wire  1 E sel_xor $end
     $var wire 33 T shift_input [32:0] $end
     $var wire 33 V shift_output [32:0] $end
    $upscope $end
    $scope module csr_unit $end
     $var wire 12 ? addr_i [11:0] $end
     $var wire  1 h clk_i $end
     $var wire 64 e csr_cycle [63:0] $end
     $var wire 32 A data_i [31:0] $end
     $var wire 32 @ data_o [31:0] $end
     $var wire  2 #! op_i [1:0] $end
     $var wire 32 @ read_value [31:0] $end
     $var wire  1 i rst_i $end
     $var wire  1 6 we_i $end
     $var wire 32 $! write_value [31:0] $end
    $upscope $end
    $scope module decode $end
     $var wire  1 2 a_op_sel_o $end
     $var wire  4 5 alu_op_sel_o [3:0] $end
     $var wire  1 3 b_op_sel_o $end
     $var wire  1 4 cmp_b_op_sel_o $end
     $var wire  3 / comparison_type_o [2:0] $end
     $var wire  3 "! csru_op_sel_o [2:0] $end
     $var wire  1 6 csru_we_o $end
     $var wire  1 ' d_mem_load_store $end
     $var wire  3 "! func3 [2:0] $end
     $var wire  7 &! func7 [6:0] $end
     $var wire 32 - getExtImm [31:0] $end
     $var wire  3 a imm_format [2:0] $end
     $var wire 32 - imm_o [31:0] $end
     $var wire 32 | instr_i [31:0] $end
     $var wire  1 . jump_en_o $end
     $var wire  3 "! mem_access_width_o [2:0] $end
     $var wire  1 & mem_we_o $end
     $var wire  7 %! opcode [6:0] $end
     $var wire  5 } rd_sel_o [4:0] $end
     $var wire  3 1 rf_din_sel_o [2:0] $end
     $var wire  1 0 rf_we_o $end
     $var wire  5 ~ rs1_sel_o [4:0] $end
     $var wire  5 !! rs2_sel_o [4:0] $end
    $upscope $end
    $scope module rf $end
     $var wire  1 h Clk_i $end
     $var wire  1 b Data_We_i $end
     $var wire 32 7 Data_i [31:0] $end
     $var wire 32 G! REG_ADDR_WIDTH [31:0] $end
     $var wire 32 F! REG_COUNT [31:0] $end
     $var wire 32 F! REG_WIDTH [31:0] $end
     $var wire  5 ~ Ra_Sel_i [4:0] $end
     $var wire 32 8 Ra_o [31:0] $end
     $var wire  5 !! Rb_Sel_i [4:0] $end
     $var wire 32 9 Rb_o [31:0] $end
     $var wire  5 } Rd_Sel_i [4:0] $end
     $var wire  1 i Rst_i $end
     $var wire 32 g i [31:0] $end
     $var wire 32 0! regs[10] [31:0] $end
     $var wire 32 1! regs[11] [31:0] $end
     $var wire 32 2! regs[12] [31:0] $end
     $var wire 32 3! regs[13] [31:0] $end
     $var wire 32 4! regs[14] [31:0] $end
     $var wire 32 5! regs[15] [31:0] $end
     $var wire 32 6! regs[16] [31:0] $end
     $var wire 32 7! regs[17] [31:0] $end
     $var wire 32 8! regs[18] [31:0] $end
     $var wire 32 9! regs[19] [31:0] $end
     $var wire 32 '! regs[1] [31:0] $end
     $var wire 32 :! regs[20] [31:0] $end
     $var wire 32 ;! regs[21] [31:0] $end
     $var wire 32 <! regs[22] [31:0] $end
     $var wire 32 =! regs[23] [31:0] $end
     $var wire 32 >! regs[24] [31:0] $end
     $var wire 32 ?! regs[25] [31:0] $end
     $var wire 32 @! regs[26] [31:0] $end
     $var wire 32 A! regs[27] [31:0] $end
     $var wire 32 B! regs[28] [31:0] $end
     $var wire 32 C! regs[29] [31:0] $end
     $var wire 32 (! regs[2] [31:0] $end
     $var wire 32 D! regs[30] [31:0] $end
     $var wire 32 E! regs[31] [31:0] $end
     $var wire 32 )! regs[3] [31:0] $end
     $var wire 32 *! regs[4] [31:0] $end
     $var wire 32 +! regs[5] [31:0] $end
     $var wire 32 ,! regs[6] [31:0] $end
     $var wire 32 -! regs[7] [31:0] $end
     $var wire 32 .! regs[8] [31:0] $end
     $var wire 32 /! regs[9] [31:0] $end
    $upscope $end
   $upscope $end
  $upscope $end
 $upscope $end
$enddefinitions $end


#8
b00000000000000000000000000000000 #
b00000000000000000000000000000000 $
b1111 %
0&
0'
0(
1)
0*
0+
0,
b00000000000000000000000000000000 -
0.
b000 /
10
b010 1
02
13
04
b0000 5
06
b00000000000000000000000000000000 7
b00000000000000000000000000000000 8
b00000000000000000000000000000000 9
b00000000000000000000000000000000 :
b00000000000000000000000000000000 ;
b00000000000000000000000000000000 <
1=
b00000000000000000000000000000000 >
b000000000000 ?
b00000000000000000000000000000000 @
b00000000000000000000000000000000 A
b00000000000000000000000000000000 B
1C
0D
0E
0F
0G
0H
0I
0J
0K
0L
0M
0N
0O
0P
0Q
0R
b00000000000000000000000000000000 S
b000000000000000000000000000000000 T
b000000000000000000000000000000000 V
b00000000000000000000000000000000 X
b0000000000000000000000000000000000000000000000000000000000000000 Y
b0000000000000000000000000000000000000000000000000000000000000000 [
b11111111111111111111111111111111 ]
b11111111111111111111111111111111 ^
b00000000000000000000000000000000 _
b00000000000000000000000000000000 `
b000 a
1b
0c
b00000000000000000000000000000000 d
b0000000000000000000000000000000000000000000000000000000000000000 e
b00000000000000000000000000100000 g
0h
0i
b00000000000000000000000000000000 j
b00001000000000000000000100010111 k
1l
1m
b00000000000000000000000000000000 n
b00000000000000000000000000000000 o
b00000000000000000000000000000000 p
b1111 q
0r
0s
0t
b00000000000000000000000000000000 u
1v
1w
0x
0y
b00000000000000000000000000000100 z
b00000000000000000000000000000000 {
b00000000000000000000000000010011 |
b00000 }
b00000 ~
b00000 !!
b000 "!
b00 #!
b00000000000000000000000000000000 $!
b0010011 %!
b0000000 &!
b00000000000000000000000000000000 '!
b00000000000000000000000000000000 (!
b00000000000000000000000000000000 )!
b00000000000000000000000000000000 *!
b00000000000000000000000000000000 +!
b00000000000000000000000000000000 ,!
b00000000000000000000000000000000 -!
b00000000000000000000000000000000 .!
b00000000000000000000000000000000 /!
b00000000000000000000000000000000 0!
b00000000000000000000000000000000 1!
b00000000000000000000000000000000 2!
b00000000000000000000000000000000 3!
b00000000000000000000000000000000 4!
b00000000000000000000000000000000 5!
b00000000000000000000000000000000 6!
b00000000000000000000000000000000 7!
b00000000000000000000000000000000 8!
b00000000000000000000000000000000 9!
b00000000000000000000000000000000 :!
b00000000000000000000000000000000 ;!
b00000000000000000000000000000000 <!
b00000000000000000000000000000000 =!
b00000000000000000000000000000000 >!
b00000000000000000000000000000000 ?!
b00000000000000000000000000000000 @!
b00000000000000000000000000000000 A!
b00000000000000000000000000000000 B!
b00000000000000000000000000000000 C!
b00000000000000000000000000000000 D!
b00000000000000000000000000000000 E!
b00000000000000000000000000100000 F!
b00000000000000000000000000000101 G!
#10
b00001000000000000000000000000000 #
b00001000000000000000000000000000 -
12
b00001000000000000000000000000000 7
b00001000000000000000000000000000 ;
b00001000000000000000000000000000 <
b00001000000000000000000000000000 S
b00000000000000000000000000000000 ]
b00000000000000000000000000000000 ^
b011 a
b00000000000000000000000000000100 d
b0000000000000000000000000000000000000000000000000000000000000001 e
1h
b00000000000000000000000000000100 j
b00001000000000000000000000000000 n
b00000000000000000000000000000100 u
b00000000000000000000000000001000 z
b00001000000000000000000100010111 |
b00010 }
b0010111 %!
b0000100 &!
#15
0h
#18
b00000000000000010000000100010011 k
#20
b00000000000000000000000000000000 -
02
b00001000000000000000000000000000 8
b00001000000000000000000000000000 :
b00000000000000000000000000000000 ;
b00001000000000000000000000000000 A
b000000000000000000000000000010000 T
b000000000000000000000000000010000 V
b00000000000000000000000000010000 X
b11111111111111111111111111111111 ]
b11111111111111111111111111111111 ^
b00001000000000000000000000000000 _
b00001000000000000000000000000000 `
b000 a
b00000000000000000000000000001000 d
b0000000000000000000000000000000000000000000000000000000000000010 e
1h
b00000000000000000000000000001000 j
b00000000000000000000000000001000 u
b00000000000000000000000000001100 z
b00000000000000000000000000000100 {
b00000000000000010000000100010011 |
b00010 ~
b00001000000000000000000000000000 $!
b0010011 %!
b0000000 &!
b00001000000000000000000000000000 (!
#25
0h
#28
b00000100000000000001000110010111 k
#30
b00000100000000000001000000001000 #
b00000100000000000001000000000000 -
12
b00000100000000000001000000001000 7
b00000000000000000000000000000000 8
b00000000000000000000000000001000 :
b00000100000000000001000000000000 ;
b00000100000000000001000000001000 <
b00000000000000000000000000000000 A
b00000100000000000001000000001000 S
b000010000000000000000000000000000 T
b000010000000000000000000000000000 V
b00010000000000000000000000000000 X
b0000000000000000000000000000000000100000000000001000000000000000 Y
b0000000000000000000000000000000000100000000000001000000000000000 [
b00000000000000000000000000000000 ]
b00000000000000000000000000000000 ^
b00000000000000000000000000001000 _
b00000000000000000000000000001000 `
b011 a
b00000000000000000000000000001100 d
b0000000000000000000000000000000000000000000000000000000000000011 e
1h
b00000000000000000000000000001100 j
b00000100000000000001000000001000 n
b00000000000000000000000000001100 u
b00000000000000000000000000010000 z
b00000000000000000000000000001000 {
b00000100000000000001000110010111 |
b00011 }
b00000 ~
b001 "!
b01 #!
b00000000000000000000000000000000 $!
b0010111 %!
b0000010 &!
#35
0h
#38
b10000001111000011000000110010011 k
#40
b00000100000000000000100000100100 #
b11111111111111111111100000011110 -
02
b00000100000000000000100000100110 7
b00000100000000000001000000001000 8
b00000100000000000001000000001000 :
b11111111111111111111100000011110 ;
b00000100000000000000100000100110 <
b100000011110 ?
b00000100000000000001000000001000 A
b00000100000000000000100000100110 S
b000010000000010000000000000100000 T
b000000000000000000000000000000000 V
b00000000000000000000000000000000 X
b1111111111111111111111111110000001110111100000011010000011110000 Y
b1111111111111111111111111110000001110111100000011010000011110000 [
b11111111111111110111111000010111 ]
b00000000000000000000000101010110 _
b00000100000000000001000000001000 `
b000 a
b00000000000000000000000000010000 d
b0000000000000000000000000000000000000000000000000000000000000100 e
1h
b00000000000000000000000000010000 j
b00000100000000000000100000100100 n
b00000000000000000000000000010000 u
b00000000000000000000000000010100 z
b00000000000000000000000000001100 {
b10000001111000011000000110010011 |
b00011 ~
b11110 !!
b000 "!
b00 #!
b00000100000000000001000000001000 $!
b0010011 %!
b1000000 &!
b00000100000000000001000000001000 )!
#45
0h
#48
b00000000000000000000010100010011 k
#50
b00000000000000000000000000000000 #
b00000000000000000000000000000000 -
b00000000000000000000000000000000 7
b00000000000000000000000000000000 8
b00000000000000000000000000000000 :
b00000000000000000000000000000000 ;
b00000000000000000000000000000000 <
b000000000000 ?
b00000000000000000000000000000000 A
b00000000000000000000000000000000 S
b000000000000000000000000000000000 T
b0000000000000000000000000000000000000000000000000000000000000000 Y
b0000000000000000000000000000000000000000000000000000000000000000 [
b11111111111111111111111111111111 ]
b11111111111111111111111111111111 ^
b00000000000000000000000000000000 _
b00000000000000000000000000000000 `
b00000000000000000000000000010100 d
b0000000000000000000000000000000000000000000000000000000000000101 e
1h
b00000000000000000000000000010100 j
b00000000000000000000000000000000 n
b00000000000000000000000000010100 u
b00000000000000000000000000011000 z
b00000000000000000000000000010000 {
b00000000000000000000010100010011 |
b01010 }
b00000 ~
b00000 !!
b00000000000000000000000000000000 $!
b0000000 &!
b00000100000000000000100000100110 )!
#55
0h
#58
b00000000000000000000010110010011 k
#60
b00000000000000000000000000011000 d
b0000000000000000000000000000000000000000000000000000000000000110 e
1h
b00000000000000000000000000011000 j
b00000000000000000000000000011000 u
b00000000000000000000000000011100 z
b00000000000000000000000000010100 {
b00000000000000000000010110010011 |
b01011 }
#65
0h
#68
b00010110110000000000000011101111 k
#70
b00000000000000000000000110000100 #
1(
1,
b00000000000000000000000101101100 -
1.
b001 1
12
b00000000000000000000000000011100 7
b00000000000000000000000000011000 :
b00000000000000000000000101101100 ;
b00000000000000000000000110000100 <
b000101101100 ?
b00000000000000000000000110000100 S
b000011000000000000000000000000000 T
b000000000000000011000000000000000 V
b00000000000000011000000000000000 X
b0000000000000000000000000000000000000000000000000010001000100000 Y
b0000000000000000000000000000000000000000000000000010001000100000 [
b00000000000000000000000000000000 ]
b00000000000000000000000000000000 ^
b00000000000000000000000000011000 _
b00000000000000000000000000011000 `
b100 a
b00000000000000000000000000011100 d
b0000000000000000000000000000000000000000000000000000000000000111 e
1h
b00000000000000000000000000011100 j
b00000000000000000000000110000100 n
b00000000000000000000000000011100 u
b00000000000000000000000000100000 z
b00000000000000000000000000011000 {
b00010110110000000000000011101111 |
b00001 }
b01100 !!
b1101111 %!
b0001011 &!
#75
0h
#78
b00000000000100000000000001110011 k
#80
b00000000000000000000000000000000 #
0(
0)
1+
b00000000000000000000000000000000 -
0.
b010 1
02
b00000000000000000000000000000000 7
b00000000000000000000000000000000 :
b00000000000000000000000000000000 ;
b00000000000000000000000000000000 <
b000000000000 ?
b00000000000000000000000000000000 S
b000000000000000000000000000000000 T
b000000000000000000000000000000000 V
b00000000000000000000000000000000 X
b0000000000000000000000000000000000000000000000000000000000000000 Y
b0000000000000000000000000000000000000000000000000000000000000000 [
b11111111111111111111111111111111 ]
b11111111111111111111111111111111 ^
b00000000000000000000000000000000 _
b00000000000000000000000000000000 `
b000 a
1c
b00000000000000000000000000100000 d
b0000000000000000000000000000000000000000000000000000000000001000 e
1h
b00000000000000000000000110000100 j
b00000000000000000000000000000000 n
b00000000000000000000000110000100 u
1y
b00000000000000000000000110001000 z
b00000000000000000000000000011100 {
b00000000000000000000000000010011 |
b00000 }
b00000 !!
b0010011 %!
b0000000 &!
b00000000000000000000000000011100 '!
#85
0h
#88
b00000100000000000000010100010111 k
#90
1)
0+
0,
0c
b0000000000000000000000000000000000000000000000000000000000001001 e
1h
0y
#95
0h
#98
#100
b00000100000000000000000110000100 #
b00000100000000000000000000000000 -
12
b00000100000000000000000110000100 7
b00000000000000000000000110000100 :
b00000100000000000000000000000000 ;
b00000100000000000000000110000100 <
b00000100000000000000000110000100 S
b000100001100000000000000000000000 T
b000100001100000000000000000000000 V
b00100001100000000000000000000000 X
b0000000000000000000000000000011000010000000000000000000000000000 Y
b0000000000000000000000000000011000010000000000000000000000000000 [
b00000000000000000000000000000000 ]
b00000000000000000000000000000000 ^
b00000000000000000000000110000100 _
b00000000000000000000000110000100 `
b011 a
b00000000000000000000000110001000 d
b0000000000000000000000000000000000000000000000000000000000001010 e
1h
b00000000000000000000000110001000 j
b00000100000000000000000110000100 n
b00000000000000000000000110001000 u
b00000000000000000000000110001100 z
b00000000000000000000000110000100 {
b00000100000000000000010100010111 |
b01010 }
b0010111 %!
b0000010 &!
#105
0h
#108
b11100111110001010000010100010011 k
#110
b00000100000000000000000000000000 #
b11111111111111111111111001111100 -
02
b00000100000000000000000000000000 7
b00000100000000000000000110000100 8
b00000100000000000000000110000100 :
b11111111111111111111111001111100 ;
b00000100000000000000000000000000 <
b111001111100 ?
b00000100000000000000000110000100 A
b00000100000000000000000000000000 S
b000100001100000000000000000100000 T
b000000000000000000000000000000010 V
b00000000000000000000000000000010 X
b1111111111111111111111111111100111101111111111011011001111110000 Y
b1111111111111111111111111111100111101111111111011011001111110000 [
b11111111111111010101110001011111 ]
b00000000000000000000000110000000 _
b00000100000000000000000110000100 `
b000 a
b00000000000000000000000110001100 d
b0000000000000000000000000000000000000000000000000000000000001011 e
1h
b00000000000000000000000110001100 j
b00000100000000000000000000000000 n
b00000000000000000000000110001100 u
b00000000000000000000000110010000 z
b00000000000000000000000110001000 {
b11100111110001010000010100010011 |
b01010 ~
b11100 !!
b00000100000000000000000110000100 $!
b0010011 %!
b1110011 &!
b00000100000000000000000110000100 0!
#115
0h
#118
b00000000100000000000000011101111 k
#120
b00000000000000000000000110010100 #
1(
1,
b00000000000000000000000000001000 -
1.
b001 1
12
b00000000000000000000000110010000 7
b00000000000000000000000000000000 8
b00000000000000000000000110001100 :
b00000000000000000000000000001000 ;
b00000000000000000000000110010100 <
b000000001000 ?
b00000000000000000000000000000000 A
b00000000000000000000000110010100 S
b000110001100000000000000000000000 T
b000000000001100011000000000000000 V
b00000000001100011000000000000000 X
b0000000000000000000000000000000000000000000000000000110001100000 Y
b0000000000000000000000000000000000000000000000000000110001100000 [
b00000000000000000000000000110001 ]
b00000000000000000000000000110001 ^
b00000000000000000000000000000100 _
b00000000000000000000000000000100 `
b100 a
b00000000000000000000000110010000 d
b0000000000000000000000000000000000000000000000000000000000001100 e
1h
b00000000000000000000000110010000 j
b00000000000000000000000110010100 n
b00000000000000000000000110010000 u
b00000000000000000000000110010100 z
b00000000000000000000000110001100 {
b00000000100000000000000011101111 |
b00001 }
b00000 ~
b01000 !!
b00000000000000000000000000000000 $!
b1101111 %!
b0000000 &!
b00000100000000000000000000000000 0!
#125
0h
#128
b00000000000100000000000001110011 k
#130
b00000000000000000000000000000000 #
0(
0)
1+
b00000000000000000000000000000000 -
0.
b010 1
02
b00000000000000000000000000000000 7
b00000000000000000000000000000000 :
b00000000000000000000000000000000 ;
b00000000000000000000000000000000 <
b000000000000 ?
b00000000000000000000000000000000 S
b000000000000000000000000000000000 T
b000000000000000000000000000000000 V
b00000000000000000000000000000000 X
b0000000000000000000000000000000000000000000000000000000000000000 Y
b0000000000000000000000000000000000000000000000000000000000000000 [
b11111111111111111111111111111111 ]
b11111111111111111111111111111111 ^
b00000000000000000000000000000000 _
b00000000000000000000000000000000 `
b000 a
1c
b00000000000000000000000110010100 d
b0000000000000000000000000000000000000000000000000000000000001101 e
1h
b00000000000000000000000110010100 j
b00000000000000000000000000000000 n
b00000000000000000000000110010100 u
1y
b00000000000000000000000110011000 z
b00000000000000000000000110010000 {
b00000000000000000000000000010011 |
b00000 }
b00000 !!
b0010011 %!
b00000000000000000000000110010000 '!
#135
0h
#138
b00000000000001010000010000010011 k
#140
1)
0+
0,
0c
b0000000000000000000000000000000000000000000000000000000000001110 e
1h
0y
#145
0h
#148
#150
b00000100000000000000000000000000 #
b00000100000000000000000000000000 7
b00000100000000000000000000000000 8
b00000100000000000000000000000000 :
b00000100000000000000000000000000 <
b00000100000000000000000000000000 A
b00000100000000000000000000000000 S
b000000000000000000000000000100000 T
b000000000000000000000000000100000 V
b00000000000000000000000000100000 X
b00000100000000000000000000000000 _
b00000100000000000000000000000000 `
b00000000000000000000000110011000 d
b0000000000000000000000000000000000000000000000000000000000001111 e
1h
b00000000000000000000000110011000 j
b00000100000000000000000000000000 n
b00000000000000000000000110011000 u
b00000000000000000000000110011100 z
b00000000000000000000000110010100 {
b00000000000001010000010000010011 |
b01000 }
b01010 ~
b00000100000000000000000000000000 $!
#155
0h
#158
b00000000000000001000101000010011 k
#160
b00000000000000000000000110010000 #
b00000000000000000000000110010000 7
b00000000000000000000000110010000 8
b00000000000000000000000110010000 :
b00000000000000000000000110010000 <
b00000000000000000000000110010000 A
b00000000000000000000000110010000 S
b000001001100000000000000000000000 T
b000001001100000000000000000000000 V
b00001001100000000000000000000000 X
b00000000000000000000000110010000 _
b00000000000000000000000110010000 `
b00000000000000000000000110011100 d
b0000000000000000000000000000000000000000000000000000000000010000 e
1h
b00000000000000000000000110011100 j
b00000000000000000000000110010000 n
b00000000000000000000000110011100 u
b00000000000000000000000110100000 z
b00000000000000000000000110011000 {
b00000000000000001000101000010011 |
b10100 }
b00001 ~
b00000000000000000000000110010000 $!
b00000100000000000000000000000000 .!
#165
0h
#168
b00000000000001000000001010000011 k
#170
b00000100000000000000000000000000 #
1'
1*
1+
b100 1
b00000000000000000000000000000000 7
b00000100000000000000000000000000 8
b00000100000000000000000000000000 :
b00000100000000000000000000000000 <
b00000100000000000000000000000000 A
b00000100000000000000000000000000 S
b000000000000000000000000000100000 T
b000000000000000000000000000100000 V
b00000000000000000000000000100000 X
b00000100000000000000000000000000 _
b00000100000000000000000000000000 `
0b
b00000000000000000000000110100000 d
b0000000000000000000000000000000000000000000000000000000000010001 e
1h
b00000000000000000000000110100000 j
b00000100000000000000000000000000 n
1s
b00000000000000000000000110100000 u
b00000000000000000000000110100100 z
b00000000000000000000000110011100 {
b00000000000001000000001010000011 |
b00101 }
b01000 ~
b00000100000000000000000000000000 $!
b0000011 %!
b00000000000000000000000110010000 :!
#175
0h
#178
0*
0+
b00000000000000000000000001001000 7
b00000000000000000000000001001000 B
1b
b00000000000000101000101001100011 k
b01101100011011000110010101001000 o
1t
1x
#180
b00000000000000000000000110110100 #
0'
b00000000000000000000000000010100 -
1.
b001 /
00
b000 1
12
b00000000000000000000000000010100 7
b00000000000000000000000001001000 8
b00000000000000000000000110100000 :
b00000000000000000000000000010100 ;
b00000000000000000000000110110100 <
0=
b000000010100 ?
b00000000000000000000000001001000 A
b00000000000000000000000110110100 S
b000000101100000000000000000000000 T
b000000000000000000000000001011000 V
b00000000000000000000000001011000 X
b0000000000000000000000000000000000000000000000000010000010000000 Y
b0000000000000000000000000000000000000000000000000010000010000000 [
b00000000000000000000000000010100 ]
b00000000000000000000000000010100 ^
b00000000000000000000000000010000 _
b00000000000000000000000000010000 `
b010 a
0b
b00000000000000000000000110100100 d
b0000000000000000000000000000000000000000000000000000000000010010 e
1h
b00000000000000000000000110100100 j
b00000000000000000000000110110100 n
0s
b00000000000000000000000110100100 u
0x
b00000000000000000000000110101000 z
b00000000000000000000000110100000 {
b00000000000000101000101001100011 |
b10100 }
b00101 ~
b00000000000000000000000001001000 $!
b1100011 %!
b00000000000000000000000001001000 +!
#185
0h
#188
b00000000000000101000010100010011 k
0t
#190
b00000000000000000000000001001000 #
b00000000000000000000000000000000 -
0.
b000 /
10
b010 1
02
b00000000000000000000000001001000 7
b00000000000000000000000001001000 :
b00000000000000000000000000000000 ;
b00000000000000000000000001001000 <
1=
b000000000000 ?
b00000000000000000000000001001000 S
b000010010000000000000000000000000 T
b000010010000000000000000000000000 V
b00010010000000000000000000000000 X
b0000000000000000000000000000000000000000000000000000000000000000 Y
b0000000000000000000000000000000000000000000000000000000000000000 [
b11111111111111111111111111111111 ]
b11111111111111111111111111111111 ^
b00000000000000000000000001001000 _
b00000000000000000000000001001000 `
b000 a
1b
b00000000000000000000000110101000 d
b0000000000000000000000000000000000000000000000000000000000010011 e
1h
b00000000000000000000000110101000 j
b00000000000000000000000001001000 n
b00000000000000000000000110101000 u
b00000000000000000000000110101100 z
b00000000000000000000000110100100 {
b00000000000000101000010100010011 |
b01010 }
b0010011 %!
#195
0h
#198
b00000001010000000000000011101111 k
#200
b00000000000000000000000110111100 #
1(
1,
b00000000000000000000000000010100 -
1.
b001 1
12
b00000000000000000000000110101100 7
b00000000000000000000000000000000 8
b00000000000000000000000110010000 9
b00000000000000000000000110101000 :
b00000000000000000000000000010100 ;
b00000000000000000000000110111100 <
b00000000000000000000000110010000 >
b000000010100 ?
b00000000000000000000000000000000 A
b00000000000000000000000110111100 S
b000010101100000000000000000000000 T
b000000000000000000000000101011000 V
b00000000000000000000000101011000 X
b0000000000000000000000000000000000000000000000000010000100100000 Y
b0000000000000000000000000000000000000000000000000010000100100000 [
b00000000000000000000000000010101 ]
b00000000000000000000000000010101 ^
b00000000000000000000000000000100 _
b00000000000000000000000000000100 `
b100 a
b00000000000000000000000110101100 d
b0000000000000000000000000000000000000000000000000000000000010100 e
1h
b00000000000000000000000110101100 j
b00000000000000000000000110111100 n
b00000000000000000000000110101100 u
b00000000000000000000000110110000 z
b00000000000000000000000110101000 {
b00000001010000000000000011101111 |
b00001 }
b00000 ~
b10100 !!
b00000000000000000000000000000000 $!
b1101111 %!
b00000000000000000000000001001000 0!
#205
0h
#208
b00000000000101000000010000010011 k
#210
b00000000000000000000000000000000 #
0(
0)
1+
b00000000000000000000000000000000 -
0.
b010 1
02
b00000000000000000000000000000000 7
b00000000000000000000000000000000 9
b00000000000000000000000000000000 :
b00000000000000000000000000000000 ;
b00000000000000000000000000000000 <
b00000000000000000000000000000000 >
b000000000000 ?
b00000000000000000000000000000000 S
b000000000000000000000000000000000 T
b000000000000000000000000000000000 V
b00000000000000000000000000000000 X
b0000000000000000000000000000000000000000000000000000000000000000 Y
b0000000000000000000000000000000000000000000000000000000000000000 [
b11111111111111111111111111111111 ]
b11111111111111111111111111111111 ^
b00000000000000000000000000000000 _
b00000000000000000000000000000000 `
b000 a
1c
b00000000000000000000000110110000 d
b0000000000000000000000000000000000000000000000000000000000010101 e
1h
b00000000000000000000000110111100 j
b00000000000000000000000000000000 n
b00000000000000000000000110111100 u
1y
b00000000000000000000000111000000 z
b00000000000000000000000110101100 {
b00000000000000000000000000010011 |
b00000 }
b00000 !!
b0010011 %!
b00000000000000000000000110101100 '!
#215
0h
#218
b00001000000000000000001100110111 k
#220
1)
0+
0,
0c
b0000000000000000000000000000000000000000000000000000000000010110 e
1h
0y
#225
0h
#228
#230
b00001000000000000000000000000000 -
b000 1
03
b00001000000000000000000000000000 7
b011 a
b00000000000000000000000111000000 d
b0000000000000000000000000000000000000000000000000000000000010111 e
1h
b00000000000000000000000111000000 j
b00000000000000000000000111000000 u
b00000000000000000000000111000100 z
b00000000000000000000000110111100 {
b00001000000000000000001100110111 |
b00110 }
b0110111 %!
b0000100 &!
#235
0h
#238
b00000000101000110000000000100011 k
